4
Boeing737
2310
68
90
230
13.0556
12.5
194.444
0.7
2
0.7
1000
Tornado
760
85
167.5
300
22.5
22.5
350
0.7
6
0.7
7000
Tomahawk
60
85
167.5
245
22.5
22.5
260
3
6
3
7000
AGM
60
85
167.5
245
22.5
22.5
270
3
6
3
3000
